{
  "evtData": {
    "channel": "secure-flow-dm-fraud-attention",
    "op_id": "fraud-attention",
    "op_name": "Operacines no reconocidas",
    "key": {
      "abalance": "S/ 38,280.92",
      "branch": "0130",
      "cbalance": "S/ 38,280.92",
      "cta": "00110130000105069550",
      "currency": "PEN",
      "formatAccount": [
        {
          "number": "011-130-000105069550-29",
          "numberType": {
            "id": "CCI",
            "name": "CODIGO DE CUENTA INTERBANCARIO"
          }
        },
        {
          "number": "0011-0130-29-0105069550",
          "numberType": {
            "id": "LIC",
            "name": "NUMERO DE REMESA"
          }
        },
        {
          "number": "001101300105069550",
          "numberType": {
            "id": "NCC",
            "name": "NUMERO CUENTA COMERCIAL"
          }
        },
        {
          "number": "BCONPEPLXXX",
          "numberType": {
            "id": "SWIFT",
            "name": "CODIGO SWIFT"
          }
        }
      ],
      "formattedCta": "0011-0130-0105069550",
      "id": "00110130000105069550",
      "interbankAccount": "011-130-000105069550-29",
      "lastname": "QUIROZ",
      "motherslastname": "CHAVEZ",
      "name": "MARYORI",
      "openingDate": "02/08/2021",
      "product": "CUENTA CORRIENTE",
      "productType": "01",
      "rbalance": "S/ 38,280.92",
      "relationshipType": "TITULAR",
      "remesaAccount": "0011-0130-29-0105069550",
      "signature": "INDIVIDUAL",
      "status": "ACTIVA",
      "subproduct": "CTA.CTE.NEGOCIO PNN (PEN)"
    }
  },
  "fraudAttention": [
    {
        "id": "167",
        "concept": "COMISION DE MANTENIMIENTO",
        "operationDate": "2022-09-14T00:00:00.000-0500",
        "amount": {
            "value": -7,
            "currency": "PEN"
        },
        "cbalance": 0,
        "abalance": 0,
        "rbalance": 0,
        "detail": {
            "id": "--",
            "type": "",
            "typeId": "FEE_PAYMENT",
            "concept": "",
            "valueDate": "",
            "transactionDate": "",
            "transactionHour": "",
            "accountingDate": "",
            "branch": "",
            "chk": "0",
            "channel": "",
            "referens": ""
        },
        "tk": {
            "IDContract": "00110814000100014098",
            "IDTransaction": "000000167"
        }
    },
    {
        "id": "166",
        "concept": "SEG.DS 09/09/22 08144000050645",
        "operationDate": "2022-09-12T00:00:00.000-0500",
        "amount": {
            "value": -0.42,
            "currency": "PEN"
        },
        "cbalance": 0,
        "abalance": 0,
        "rbalance": 0,
        "detail": {
            "id": "--",
            "type": "",
            "typeId": "LOAN_AMORTIZATION",
            "concept": "",
            "valueDate": "",
            "transactionDate": "",
            "transactionHour": "",
            "accountingDate": "",
            "branch": "",
            "chk": "0",
            "channel": "",
            "referens": ""
        },
        "tk": {
            "IDContract": "00110814000100014098",
            "IDTransaction": "000000166"
        }
    },
    {
        "id": "165",
        "concept": "SEG.DS 09/09/22 08144000050637",
        "operationDate": "2022-09-12T00:00:00.000-0500",
        "amount": {
            "value": -9.03,
            "currency": "PEN"
        },
        "cbalance": 0,
        "abalance": 0,
        "rbalance": 0,
        "detail": {
            "id": "--",
            "type": "",
            "typeId": "LOAN_AMORTIZATION",
            "concept": "",
            "valueDate": "",
            "transactionDate": "",
            "transactionHour": "",
            "accountingDate": "",
            "branch": "",
            "chk": "0",
            "channel": "",
            "referens": ""
        },
        "tk": {
            "IDContract": "00110814000100014098",
            "IDTransaction": "000000165"
        }
    },
    {
        "id": "164",
        "concept": "P.P.: 001108149600020741 - 7",
        "operationDate": "2022-09-09T00:00:00.000-0500",
        "amount": {
            "value": -51.44,
            "currency": "PEN"
        },
        "cbalance": 0,
        "abalance": 0,
        "rbalance": 0,
        "detail": {
            "id": "--",
            "type": "",
            "typeId": "LOAN_AMORTIZATION",
            "concept": "",
            "valueDate": "",
            "transactionDate": "",
            "transactionHour": "",
            "accountingDate": "",
            "branch": "",
            "chk": "0",
            "channel": "",
            "referens": ""
        },
        "tk": {
            "IDContract": "00110814000100014098",
            "IDTransaction": "000000164"
        }
    },
    {
        "id": "163",
        "concept": "ITF - P.P.: 001108149600020733 - 7",
        "operationDate": "2022-09-09T00:00:00.000-0500",
        "amount": {
            "value": -0.05,
            "currency": "PEN"
        },
        "cbalance": 0,
        "abalance": 0,
        "rbalance": 0,
        "detail": {
            "id": "--",
            "type": "",
            "typeId": "TAX_PAYMENT",
            "concept": "",
            "valueDate": "",
            "transactionDate": "",
            "transactionHour": "",
            "accountingDate": "",
            "branch": "",
            "chk": "0",
            "channel": "",
            "referens": ""
        },
        "tk": {
            "IDContract": "00110814000100014098",
            "IDTransaction": "000000163"
        }
    },
    {
        "id": "162",
        "concept": "P.P.: 001108149600020733 - 7",
        "operationDate": "2022-09-09T00:00:00.000-0500",
        "amount": {
            "value": -1106.05,
            "currency": "PEN"
        },
        "cbalance": 0,
        "abalance": 0,
        "rbalance": 0,
        "detail": {
            "id": "--",
            "type": "",
            "typeId": "LOAN_AMORTIZATION",
            "concept": "",
            "valueDate": "",
            "transactionDate": "",
            "transactionHour": "",
            "accountingDate": "",
            "branch": "",
            "chk": "0",
            "channel": "",
            "referens": ""
        },
        "tk": {
            "IDContract": "00110814000100014098",
            "IDTransaction": "000000162"
        }
    },
    {
        "id": "161",
        "concept": "ABONO POR TRASPASO",
        "operationDate": "2022-09-07T00:00:00.000-0500",
        "amount": {
            "value": 5,
            "currency": "PEN"
        },
        "cbalance": 0,
        "abalance": 0,
        "rbalance": 0,
        "detail": {
            "id": "--",
            "type": "",
            "typeId": "CASH_INCOME",
            "concept": "",
            "valueDate": "",
            "transactionDate": "",
            "transactionHour": "",
            "accountingDate": "",
            "branch": "",
            "chk": "0",
            "channel": "",
            "referens": ""
        },
        "tk": {
            "IDContract": "00110814000100014098",
            "IDTransaction": "000000161"
        }
    },
    {
        "id": "160",
        "concept": "TRAS A :0011-0130-0210447366",
        "operationDate": "2022-09-07T00:00:00.000-0500",
        "amount": {
            "value": -10,
            "currency": "PEN"
        },
        "cbalance": 0,
        "abalance": 0,
        "rbalance": 0,
        "detail": {
            "id": "--",
            "type": "",
            "typeId": "TRANSFER_DEBIT",
            "concept": "",
            "valueDate": "",
            "transactionDate": "",
            "transactionHour": "",
            "accountingDate": "",
            "branch": "",
            "chk": "0",
            "channel": "",
            "referens": ""
        },
        "tk": {
            "IDContract": "00110814000100014098",
            "IDTransaction": "000000160"
        }
    },
    {
        "id": "159",
        "concept": "PRUEBA",
        "operationDate": "2022-09-07T00:00:00.000-0500",
        "amount": {
            "value": -10,
            "currency": "PEN"
        },
        "cbalance": 0,
        "abalance": 0,
        "rbalance": 0,
        "detail": {
            "id": "--",
            "type": "",
            "typeId": "TRANSFER_DEBIT",
            "concept": "",
            "valueDate": "",
            "transactionDate": "",
            "transactionHour": "",
            "accountingDate": "",
            "branch": "",
            "chk": "0",
            "channel": "",
            "referens": ""
        },
        "tk": {
            "IDContract": "00110814000100014098",
            "IDTransaction": "000000159"
        }
    },
    {
        "id": "158",
        "concept": "TRAS A :0011-0130-0210435007",
        "operationDate": "2022-09-06T00:00:00.000-0500",
        "amount": {
            "value": -56,
            "currency": "PEN"
        },
        "cbalance": 0,
        "abalance": 0,
        "rbalance": 0,
        "detail": {
            "id": "--",
            "type": "",
            "typeId": "TRANSFER_DEBIT",
            "concept": "",
            "valueDate": "",
            "transactionDate": "",
            "transactionHour": "",
            "accountingDate": "",
            "branch": "",
            "chk": "0",
            "channel": "",
            "referens": ""
        },
        "tk": {
            "IDContract": "00110814000100014098",
            "IDTransaction": "000000158"
        }
    }
]
}
